{
	"resources": [
		{
			"name": "blueSqu",
			"model": {
				"color": [ 47, 108, 250 ],
				"type": "square"
			}
		},
		{
			"name": "redTri",
			"model": {
				"color": [ 245, 91, 56 ],
				"type": "triangle"
			}
		},
		{
			"name": "blueTri",
			"model": {
				"color": [ 132, 166, 245 ],
				"type": "triangle"
			}
		},
		{
			"name": "orangeCir",
			"model": {
				"color": [ 245, 167, 42 ],
				"type": "circle"
			}
		},
		{
			"name": "whiteCir",
			"model": {
				"color": [ 255, 255, 255 ],
				"type": "circle"
			}
		},
		{
			"name": "pinkDia",
			"model": {
				"color": [ 2, 69, 186 ],
				"type": "diamond"
			}
		},
		{
			"name": "blackCir",
			"model": {
				"color": [ 0, 0, 0 ],
				"type": "circle"
			}
		},
		{
			"name": "blackDia",
			"model": {
				"color": [ 0, 0, 0 ],
				"type": "diamond"
			}
		},
		{
			"name": "whiteDia",
			"model": {
				"color": [ 255, 255, 255 ],
				"type": "diamond"
			}
		}
	],
	"roles": {
		"player1": {
			"startingResources": {
				"orangeCir": 5,
				"blueSqu": 4,
				"blueTri": 1
			},
			"infiniteResources": [
				"whiteCir"
			],
			"recipes": [
				{
					"inputs": {
						"blueSqu": 4,
						"blueTri": 1
					},
					"outputs": {
						"whiteDia": 1
					},
					"destination": {
						"role": "player2",
						"staged": false
					}
				},
				{
					"inputs": {
						"blueSqu": 3,
						"blueTri": 1,
						"orangeCir": 1
					},
					"outputs": {
						"pinkDia": 1
					},
					"destination": {
						"role": "player2",
						"staged": false
					}
				},
				{
					"inputs": {
						"whiteCir": 1,
						"blackCir": 1
					},
					"outputs": {
						"blackDia": 1
					},
					"destination": {
						"role": "player2",
						"staged": false
					}
				}
			]
		},
		"player2": {
			"startingResources": {
				"redTri": 10
			},
			"infiniteResources": [
				"orangeCir"
			],
			"recipes": [
				{
					"inputs": {
						"pinkDia": 1,
						"orangeCir": 1
					},
					"outputs": {
						"blueTri": 2,
						"blackCir":  1
					},
					"destination": {
						"role": "player1",
						"staged": false
					}
				},
				{
					"inputs": {
						"blackDia": 1,
						"orangeCir": 1
					},
					"outputs": {
						"blueSqu": 2,
						"blackCir": 1
					},
					"destination": {
						"role": "player1",
						"staged": false
					}
				},
				{
					"inputs": {
						"redTri": 1,
						"pinkDia": 1
					},
					"outputs": {
						"whiteDia": 2
					},
					"destination": {
						"role": "player1",
						"staged": false
					}
				}
			]
		}
	}
}
